{
	"manifest_version": 2,
	"name": "New tab page",
	"version": "1.3.0",
	"description": "New tab page by Timmy1e. Based on the Tokyo Grey colors scheme. Source can be found on the GitLab repo: 'https://gitlab.com/Timmy1e/new-tab-pages'",
	"author": "Timmy1e",
	"chrome_url_overrides": {
		"newtab": "newtab.html"
	}
}